{
  "Coqtail": { "branch": "main", "commit": "c1ae5b36b7f6dad31d176bf7bcffef36c7cac731" },
  "LuaSnip": { "branch": "master", "commit": "45db5addf8d0a201e1cf247cae4cdce605ad3768" },
  "cmp-nvim-lsp": { "branch": "main", "commit": "39e2eda76828d88b773cc27a3f61d2ad782c922d" },
  "lazy.nvim": { "branch": "main", "commit": "48b52b5cfcf8f88ed0aff8fde573a5cc20b1306d" },
  "lsp-zero.nvim": { "branch": "v2.x", "commit": "9a686513eaaa13d737d0fec8956a18268ead8b29" },
  "lspkind.nvim": { "branch": "master", "commit": "cff4ae321a91ee3473a92ea1a8c637e3a9510aec" },
  "lualine.nvim": { "branch": "master", "commit": "b431d228b7bbcdaea818bdc3e25b8cdbe861f056" },
  "neo-tree.nvim": { "branch": "v2.x", "commit": "80dc74d081823649809f78370fa5b204aa9a853a" },
  "nui.nvim": { "branch": "main", "commit": "61574ce6e60c815b0a0c4b5655b8486ba58089a1" },
  "nvim-autopairs": { "branch": "master", "commit": "fd2badc24e675f947162a16c124d395bde80dbd6" },
  "nvim-cmp": { "branch": "main", "commit": "ae644feb7b67bf1ce4260c231d1d4300b19c6f30" },
  "nvim-lspconfig": { "branch": "master", "commit": "bdbc65aadc708ce528efb22bca5f82a7cca6b54d" },
  "nvim-treesitter": { "branch": "master", "commit": "3826d0c42ac635f560479b5b6ab522f6627a3466" },
  "nvim-web-devicons": { "branch": "master", "commit": "3722e3d1fb5fe1896a104eb489e8f8651260b520" },
  "omnisharp-extended-lsp.nvim": { "branch": "main", "commit": "aad7bf06b4ca0de816b919d475a75b30f5f62b61" },
  "plenary.nvim": { "branch": "master", "commit": "ec289423a1693aeae6cd0d503bac2856af74edaa" },
  "rainbow_parentheses.vim": { "branch": "master", "commit": "27e7cd73fec9d1162169180399ff8ea9fa28b003" },
  "rose-pine": { "branch": "main", "commit": "8b1fd252255a7f2c41b4192a787ab62660b29f72" },
  "smart-splits.nvim": { "branch": "master", "commit": "aee30930689ae427729aad41568ccaae57c167fe" },
  "telescope-fzf-native.nvim": { "branch": "main", "commit": "cf48d4dfce44e0b9a2e19a008d6ec6ea6f01a83b" },
  "telescope-ui-select.nvim": { "branch": "master", "commit": "6e51d7da30bd139a6950adf2a47fda6df9fa06d2" },
  "telescope.nvim": { "branch": "0.1.x", "commit": "a0bbec21143c7bc5f8bb02e0005fa0b982edc026" },
  "trouble.nvim": { "branch": "main", "commit": "6efc446226679fda0547c0fd6a7892fd5f5b15d8" },
  "vim-abolish": { "branch": "master", "commit": "dcbfe065297d31823561ba787f51056c147aa682" },
  "vim-fugitive": { "branch": "master", "commit": "1d18c696c4284e9ce9467a5c04d3adf8af43f994" },
  "vim-smoothie": { "branch": "master", "commit": "df1e324e9f3395c630c1c523d0555a01d2eb1b7e" },
  "vimtex": { "branch": "master", "commit": "44a2f1203ce2b6fcf1ff2b03aeca52c45f8a157e" }
}
